{
	"globalConfig": {
		"__comment": "Specify a list of cores that are available to you as a user",
		"availableCores": "0-7"
	},
	"vmConfig": {
		"work_linux": {
			"__comment": "This VM will be started with core isolation enabled",
			"libvirtName": "my_very_special_dev_vm",
			"isolateCores": true
		},
		"work_windows": {
			"__comment": "This VM will be started with core isolation disabled",
			"libvirtName": "complex_name_of_windows_vm",
			"isolateCores": false
		},
		"work_partial_config": {
			"__comment": "This VM has only name specified, the isolation is controlled with script",
			"libvirtName": "some_other_name"
		}
	}	
}
